…
```r
gather(aircraft_strikes)
```

```
## # A tibble: 1,199,420 x 2
##    key         value
##    <chr>       <chr>
##  1 Operator ID UAL  
##  2 Operator ID UNK  
##  3 Operator ID UAL  
##  4 Operator ID UNK  
##  5 Operator ID UAL  
##  6 Operator ID UNK  
##  7 Operator ID UNK  
##  8 Operator ID UNK  
##  9 Operator ID QXE  
## 10 Operator ID UNK  
## # ... with 1,199,410 more rows
```

```r
aircraft_strikes_tidy <-
  aircraft_strikes %>% 
  na_if("UNKNOWN") %>% 
  na_if("UNKNOWN BIRD") %>% 
  na_if("UNK") %>% 
  na_if("UNKNOWN BIRD - SMALL") %>% 
  na_if("UNKNOWN BIRD - MEDIUM") %>% 
  na_if("UNKNOWN BIRD - SMALL")
aircraft_strikes_tidy
```

```
## # A tibble: 59,971 x 20
##    `Operator ID` Operator `Aircraft Type` `Registration N… Airport Runway
##    <chr>         <chr>    <chr>           <chr>            <chr>   <chr> 
##  1 UAL           UNITED … B-737-500       N933UA           <NA>    <NA>  
##  2 <NA>          <NA>     <NA>            <NA>             PAJN    8/26  
##  3 UAL           UNITED … A-320           N453UA           <NA>    <NA>  
##  4 <NA>          <NA>     <NA>            <NA>             KOMA    18    
##  5 UAL           UNITED … B-777-200       N777UA           <NA>    <NA>  
##  6 <NA>          <NA>     <NA>            <NA>             KCLE    24    
##  7 <NA>          <NA>     <NA>            <NA>             KAUS    17R/3…
##  8 <NA>          <NA>     <NA>            <NA>             KBWI    10/28 
##  9 QXE           HORIZON… CL-RJ700        <NA>             KOMA    14R   
## 10 <NA>          <NA>     <NA>            <NA>             KMDW    31C   
## # ... with 59,961 more rows, and 14 more variables: State <chr>,
## #   City <chr>, Date <chr>, `Height (feet)` <dbl>, Speed <dbl>, `Phase of
## #   Flight` <chr>, Sky <chr>, Precipitation <chr>, Species <chr>, `Birds
## #   Seen` <chr>, `Birds Struck` <chr>, Size <chr>, `Cost of
## #   Repairs` <dbl>, `Other Costs` <dbl>
```
…
```
## Warning: package 'bindrcpp' was built under R version 3.4.4
```

```r
strikes_by_airline
```

```
## # A tibble: 317 x 2
##    Operator           count
##    <chr>              <int>
##  1 <NA>               12476
##  2 UNITED AIRLINES     7833
##  3 BUSINESS            4931
##  4 SOUTHWEST AIRLINES  4192
##  5 FEDEX EXPRESS       3025
##  6 AMERICAN AIRLINES   2585
##  7 UPS AIRLINES        2252
##  8 DELTA AIR LINES     1905
##  9 NORTHWEST AIRLINES  1675
## 10 US AIRWAYS          1671
## # ... with 307 more rows
```
…
```r
aircraft_strikes_tidy %>% 
  count(Species) %>% 
  arrange(desc(n))
```

```
## # A tibble: 485 x 2
##    Species                  n
##    <chr>                <int>
##  1 <NA>                 31848
##  2 MOURNING DOVE         2291
##  3 GULLS                 2186
##  4 EUROPEAN STARLING     1427
##  5 AMERICAN KESTREL      1422
##  6 SPARROWS              1220
##  7 KILLDEER              1189
##  8 UNKNOWN BIRD - LARGE  1076
##  9 ROCK PIGEON           1045
## 10 HORNED LARK            832
## # ... with 475 more rows
```
…
```r
airport_species <- 
aircraft_strikes_tidy %>% 
  group_by(Airport, Species) %>% 
  summarize(count=n()) %>% 
  arrange(desc(count))
airport_species
```

```
## # A tibble: 8,509 x 3
## # Groups:   Airport [1,342]
##    Airport Species count
##    <chr>   <chr>   <int>
##  1 <NA>    <NA>     7281
##  2 KDEN    <NA>     1267
##  3 KMEM    <NA>     1110
##  4 KORD    <NA>      841
##  5 KSMF    <NA>      655
##  6 KDFW    <NA>      642
##  7 KSDF    <NA>      614
##  8 KIAD    <NA>      537
##  9 KSFO    <NA>      399
## 10 KDTW    <NA>      333
## # ... with 8,499 more rows
```


```r
strikes_by_airport <- 
aircraft_strikes_tidy %>% 
  group_by(Airport) %>% 
  summarize(count=n()) %>% 
  arrange(desc(count))
strikes_by_airport
```

```
## # A tibble: 1,342 x 2
##    Airport count
##    <chr>   <int>
##  1 <NA>     8170
##  2 KDEN     2090
##  3 KDFW     1529
##  4 KMEM     1316
##  5 KORD     1305
##  6 KJFK     1199
##  7 KSMF      944
##  8 KPDX      829
##  9 KIAD      806
## 10 KMCI      804
## # ... with 1,332 more rows
```
…
```r
strikes_by_state <- 
aircraft_strikes_tidy %>% 
  group_by(State) %>% 
  summarize(count=n()) %>% 
  arrange(desc(count))
strikes_by_state
```

```
## # A tibble: 63 x 2
##    State count
##    <chr> <int>
##  1 <NA>   8611
##  2 CA     4857
##  3 TX     4041
##  4 FL     3174
##  5 NY     3025
##  6 IL     2451
##  7 CO     2430
##  8 OH     2109
##  9 TN     1914
## 10 MI     1654
## # ... with 53 more rows
```
…
```r
airports_by_state <- 
aircraft_strikes_tidy %>% 
  select(State, Airport) %>% 
  count(State) 
airports_by_state
```

```
## # A tibble: 63 x 2
##    State     n
##    <chr> <int>
##  1 AB       28
##  2 AK      382
##  3 AL      362
##  4 AR      191
##  5 AZ     1216
##  6 BC       60
##  7 CA     4857
##  8 CO     2430
##  9 CT      524
## 10 DC     1218
## # ... with 53 more rows
```
