…
```r
aircraft_strikes_tidy <-
  aircraft_strikes %>% 
  na_if("UNKNOWN") %>% 
  na_if("UNKNOWN BIRD") %>% 
  na_if("UNK")
aircraft_strikes_tidy
```

```
## # A tibble: 59,971 x 20
##    `Operator ID` Operator `Aircraft Type` `Registration N… Airport Runway
##    <chr>         <chr>    <chr>           <chr>            <chr>   <chr> 
##  1 UAL           UNITED … B-737-500       N933UA           <NA>    <NA>  
##  2 <NA>          <NA>     <NA>            <NA>             PAJN    8/26  
##  3 UAL           UNITED … A-320           N453UA           <NA>    <NA>  
##  4 <NA>          <NA>     <NA>            <NA>             KOMA    18    
##  5 UAL           UNITED … B-777-200       N777UA           <NA>    <NA>  
##  6 <NA>          <NA>     <NA>            <NA>             KCLE    24    
##  7 <NA>          <NA>     <NA>            <NA>             KAUS    17R/3…
##  8 <NA>          <NA>     <NA>            <NA>             KBWI    10/28 
##  9 QXE           HORIZON… CL-RJ700        <NA>             KOMA    14R   
## 10 <NA>          <NA>     <NA>            <NA>             KMDW    31C   
## # ... with 59,961 more rows, and 14 more variables: State <chr>,
## #   City <chr>, Date <chr>, `Height (feet)` <dbl>, Speed <dbl>, `Phase of
## #   Flight` <chr>, Sky <chr>, Precipitation <chr>, Species <chr>, `Birds
## #   Seen` <chr>, `Birds Struck` <chr>, Size <chr>, `Cost of
## #   Repairs` <dbl>, `Other Costs` <dbl>
```
…
```
## Warning: package 'bindrcpp' was built under R version 3.4.4
```

```r
strikes_by_airline
```

```
## # A tibble: 317 x 2
##    Operator           count
##    <chr>              <int>
##  1 <NA>               12476
##  2 UNITED AIRLINES     7833
##  3 BUSINESS            4931
##  4 SOUTHWEST AIRLINES  4192
##  5 FEDEX EXPRESS       3025
##  6 AMERICAN AIRLINES   2585
##  7 UPS AIRLINES        2252
##  8 DELTA AIR LINES     1905
##  9 NORTHWEST AIRLINES  1675
## 10 US AIRWAYS          1671
## # ... with 307 more rows
```
…
```r
aircraft_strikes_tidy %>% 
  count(Species) %>% 
  arrange(desc(n))
```

```
## # A tibble: 487 x 2
##    Species                   n
##    <chr>                 <int>
##  1 <NA>                  16436
##  2 UNKNOWN BIRD - SMALL  11759
##  3 UNKNOWN BIRD - MEDIUM  3653
##  4 MOURNING DOVE          2291
##  5 GULLS                  2186
##  6 EUROPEAN STARLING      1427
##  7 AMERICAN KESTREL       1422
##  8 SPARROWS               1220
##  9 KILLDEER               1189
## 10 UNKNOWN BIRD - LARGE   1076
## # ... with 477 more rows
```


```r
QQQ <- 
  aircraft_strikes_tidy %>% 
  filter(!Species=="UNKNOWN BIRD - SMALL",
         !Species=="NA",
         !Species=="UNKNOWN BIRD - MEDIUM",
         !Species=="UNKNOWN BIRD - LARGE")
QQQ
```

```
## # A tibble: 27,047 x 20
##    `Operator ID` Operator `Aircraft Type` `Registration N… Airport Runway
##    <chr>         <chr>    <chr>           <chr>            <chr>   <chr> 
##  1 <NA>          <NA>     <NA>            <NA>             PAJN    8/26  
##  2 <NA>          <NA>     <NA>            <NA>             KOMA    18    
##  3 <NA>          <NA>     <NA>            <NA>             KCLE    24    
##  4 <NA>          <NA>     <NA>            <NA>             KAUS    17R/3…
##  5 <NA>          <NA>     <NA>            <NA>             KBWI    10/28 
##  6 <NA>          <NA>     <NA>            <NA>             KMDW    31C   
##  7 <NA>          <NA>     <NA>            <NA>             KBOS    <NA>  
##  8 <NA>          <NA>     <NA>            <NA>             KTEB    6     
##  9 <NA>          <NA>     <NA>            <NA>             KPSM    16    
## 10 <NA>          <NA>     <NA>            <NA>             KSLC    17/35 
## # ... with 27,037 more rows, and 14 more variables: State <chr>,
## #   City <chr>, Date <chr>, `Height (feet)` <dbl>, Speed <dbl>, `Phase of
## #   Flight` <chr>, Sky <chr>, Precipitation <chr>, Species <chr>, `Birds
## #   Seen` <chr>, `Birds Struck` <chr>, Size <chr>, `Cost of
## #   Repairs` <dbl>, `Other Costs` <dbl>
```
…
```r
airport_species <- 
QQQ %>% 
  group_by(Airport, Species) %>% 
  summarize(count=n()) %>% 
  arrange(desc(count))
airport_species
```

```
## # A tibble: 7,351 x 3
## # Groups:   Airport [1,081]
##    Airport Species               count
##    <chr>   <chr>                 <int>
##  1 KDEN    HORNED LARK             244
##  2 KPHX    MOURNING DOVE           208
##  3 KDFW    MOURNING DOVE           207
##  4 KMDW    AMERICAN KESTREL        164
##  5 KJFK    HERRING GULL            157
##  6 PHNL    PACIFIC GOLDEN-PLOVER   146
##  7 KPDX    AMERICAN KESTREL        117
##  8 KDFW    ROCK PIGEON             102
##  9 PHLI    PACIFIC GOLDEN-PLOVER   101
## 10 KTEB    EUROPEAN STARLING        93
## # ... with 7,341 more rows
```
…
```r
airport_species %>% 
  filter(Species=="HORNED LARK" | Species=="MOURNING DOVE")
```

```
## # A tibble: 316 x 3
## # Groups:   Airport [252]
##    Airport Species       count
##    <chr>   <chr>         <int>
##  1 KDEN    HORNED LARK     244
##  2 KPHX    MOURNING DOVE   208
##  3 KDFW    MOURNING DOVE   207
##  4 KMCI    HORNED LARK      89
##  5 KCMH    MOURNING DOVE    82
##  6 KCOS    HORNED LARK      72
##  7 KCLE    MOURNING DOVE    71
##  8 KDEN    MOURNING DOVE    67
##  9 KSLC    HORNED LARK      67
## 10 KSHV    MOURNING DOVE    60
## # ... with 306 more rows
```
