…
## Which species is recorded as being hit the most?

```r
aircraft_strikes %>% 
  filter(Species!= "UNKNOWN") %>% 
  count(Species) %>% 
  arrange(desc(n)) 
```

```
## # A tibble: 483 x 2
##    Species               n
##    <chr>             <int>
##  1 MOURNING DOVE      2291
##  2 GULLS              2186
##  3 EUROPEAN STARLING  1427
##  4 AMERICAN KESTREL   1422
##  5 SPARROWS           1220
##  6 KILLDEER           1189
##  7 ROCK PIGEON        1045
##  8 HORNED LARK         832
##  9 BARN SWALLOW        753
## 10 RED-TAILED HAWK     732
## # … with 473 more rows
```
…
```
## # A tibble: 13,871 x 6
## # Groups:   Airport, City, Speed, Sky [6,668]
##    Airport City                Speed Sky   Species               count
##    <chr>   <chr>               <dbl> <chr> <chr>                 <int>
##  1 KDEN    DENVER INTL AIRPORT    NA <NA>  HORNED LARK             206
##  2 KPHX    PHOENIX SKY HARBOR     NA <NA>  MOURNING DOVE           192
##  3 KMDW    CHICAGO MIDWAY         NA <NA>  AMERICAN KESTREL        144
##  4 KDFW    DALLAS FORT WORTH      NA <NA>  MOURNING DOVE           114
##  5 KJFK    JOHN F KENNEDY INTL    NA <NA>  HERRING GULL            113
##  6 PHNL    HONOLULU INTL ARPT     NA <NA>  PACIFIC GOLDEN-PLOVER   103
##  7 KPDX    PORTLAND INTL (OR)     NA <NA>  AMERICAN KESTREL         87
##  8 KTEB    TETERBORO AIRPORT      NA <NA>  AMERICAN KESTREL         81
##  9 KMCI    KANSAS CITY INTL       NA <NA>  HORNED LARK              74
## 10 KPHX    PHOENIX SKY HARBOR     NA <NA>  ROCK PIGEON              71
## # … with 13,861 more rows
```
…
